{
"OldFaithful":
{
	"components":
	{
		"Transform":
		{
		},
		"Physics":
		{
			"bodyType": "dynamic",
			"density": 100,
			"shape":
			{
				"type": "box",
				"lowerBound":  { "x": -0.5, "y": -0.5},
				"upperBound":  { "x": 0.5, "y": 0.5}
			}
		},
		"Sprite":
		{
			"spriteName": "oldFaithful.png",
			"renderLevel": 1000,
			"scale": 1.0
		},
		"2dDirectionControl":
		{
			"movementForce": 1000.0,
			"relativeToRotation": true
		},
		"2dRotationControl":
		{
			"rotationForce": 200.0
		}
	}
}
}
